rtl_output.log
VCD info: dumpfile alu_wave.vcd opened for output.
===================================================
 DIRECTED TESTS
===================================================
PASS [ADD_basic] a=05 b=03 op=0000 -> result=08 carry=0 ovf=0 zero=0 neg=0
PASS [ADD_zero] a=00 b=00 op=0000 -> result=00 carry=0 ovf=0 zero=1 neg=0
PASS [ADD_carry_out] a=ff b=01 op=0000 -> result=00 carry=1 ovf=0 zero=1 neg=0
PASS [_signed_overflow] a=7f b=01 op=0000 -> result=80 carry=0 ovf=1 zero=0 neg=1
PASS [SUB_basic] a=05 b=03 op=0001 -> result=02 carry=1 ovf=0 zero=0 neg=0
PASS [SUB_zero] a=05 b=05 op=0001 -> result=00 carry=1 ovf=0 zero=1 neg=0
PASS [SUB_borrow] a=00 b=01 op=0001 -> result=ff carry=0 ovf=0 zero=0 neg=1
PASS [_signed_overflow] a=80 b=01 op=0001 -> result=7f carry=1 ovf=1 zero=0 neg=0
PASS [AND_disjoint] a=f0 b=0f op=0010 -> result=00 carry=0 ovf=0 zero=1 neg=0
PASS [OR_alternating] a=aa b=55 op=0011 -> result=ff carry=0 ovf=0 zero=0 neg=1
PASS [XOR_identical] a=ff b=ff op=0100 -> result=00 carry=0 ovf=0 zero=1 neg=0
PASS [NOR_all_zero] a=00 b=00 op=0101 -> result=ff carry=0 ovf=0 zero=0 neg=1
PASS [SLL_by_zero] a=01 b=00 op=0110 -> result=01 carry=0 ovf=0 zero=0 neg=0
PASS [SLL_by_max] a=01 b=07 op=0110 -> result=80 carry=0 ovf=0 zero=0 neg=1
PASS [SRL_by_max] a=80 b=07 op=0111 -> result=01 carry=0 ovf=0 zero=0 neg=0
PASS [SRA_negative_msb] a=80 b=01 op=1000 -> result=c0 carry=0 ovf=0 zero=0 neg=1
PASS [igned_neg_lt_pos] a=ff b=01 op=1001 -> result=01 carry=0 ovf=0 zero=0 neg=0
PASS [SLTU_unsigned_lt] a=01 b=ff op=1010 -> result=01 carry=0 ovf=0 zero=0 neg=0
PASS [NOT_all_zero] a=00 b=00 op=1011 -> result=ff carry=0 ovf=0 zero=0 neg=1
PASS [NOT_all_ones] a=ff b=00 op=1011 -> result=00 carry=0 ovf=0 zero=1 neg=0
PASS [UNDEFINED_opcode] a=aa b=55 op=1111 -> result=00 carry=0 ovf=0 zero=1 neg=0
===================================================
 RANDOM TESTS (200 vectors, opcodes 0-11)
===================================================
PASS [RANDOM] a=24 b=81 op=0001 -> result=a3 carry=0 ovf=1 zero=0 neg=1
PASS [RANDOM] a=63 b=0d op=0101 -> result=90 carry=0 ovf=0 zero=0 neg=1
PASS [RANDOM] a=65 b=12 op=1001 -> result=00 carry=0 ovf=0 zero=1 neg=0
PASS [RANDOM] a=0d b=76 op=0101 -> result=80 carry=0 ovf=0 zero=0 neg=1
PASS [RANDOM] a=ed b=8c op=0001 -> result=61 carry=1 ovf=0 zero=0 neg=0
PASS [RANDOM] a=c6 b=c5 op=0110 -> result=c0 carry=0 ovf=0 zero=0 neg=1
PASS [RANDOM] a=e5 b=77 op=0010 -> result=65 carry=0 ovf=0 zero=0 neg=0
PASS [RANDOM] a=8f b=f2 op=0110 -> result=3c carry=0 ovf=0 zero=0 neg=0
PASS [RANDOM] a=e8 b=c5 op=1000 -> result=ff carry=0 ovf=0 zero=0 neg=1
PASS [RANDOM] a=bd b=2d op=0001 -> result=90 carry=1 ovf=0 zero=0 neg=1
PASS [RANDOM] a=63 b=0a op=1000 -> result=18 carry=0 ovf=0 zero=0 neg=0
PASS [RANDOM] a=20 b=aa op=1001 -> result=00 carry=0 ovf=0 zero=1 neg=0
PASS [RANDOM] a=96 b=13 op=0001 -> result=83 carry=1 ovf=0 zero=0 neg=1
PASS [RANDOM] a=53 b=6b op=0001 -> result=e8 carry=0 ovf=0 zero=0 neg=1
PASS [RANDOM] a=02 b=ae op=1001 -> result=00 carry=0 ovf=0 zero=1 neg=0
PASS [RANDOM] a=cf b=23 op=0010 -> result=03 carry=0 ovf=0 zero=0 neg=0
PASS [RANDOM] a=ca b=3c op=0010 -> result=08 carry=0 ovf=0 zero=0 neg=0
PASS [RANDOM] a=8a b=41 op=0000 -> result=cb carry=0 ovf=0 zero=0 neg=1
PASS [RANDOM] a=78 b=89 op=0111 -> result=3c carry=0 ovf=0 zero=0 neg=0
PASS [RANDOM] a=b6 b=c6 op=1010 -> result=01 carry=0 ovf=0 zero=0 neg=0
PASS [RANDOM] a=bc b=2a op=0011 -> result=be carry=0 ovf=0 zero=0 neg=1
PASS [RANDOM] a=71 b=85 op=0111 -> result=03 carry=0 ovf=0 zero=0 neg=0
PASS [RANDOM] a=3b b=3a op=0110 -> result=ec carry=0 ovf=0 zero=0 neg=1
PASS [RANDOM] a=15 b=f1 op=0001 -> result=24 carry=0 ovf=0 zero=0 neg=0
PASS [RANDOM] a=62 b=4c op=0111 -> result=06 carry=0 ovf=0 zero=0 neg=0
PASS [RANDOM] a=8f b=f8 op=0111 -> result=8f carry=0 ovf=0 zero=0 neg=1
PASS [RANDOM] a=9f b=5c op=1011 -> result=60 carry=0 ovf=0 zero=0 neg=0
PASS [RANDOM] a=89 b=49 op=0000 -> result=d2 carry=0 ovf=0 zero=0 neg=1
PASS [RANDOM] a=d7 b=51 op=0010 -> result=51 carry=0 ovf=0 zero=0 neg=0
PASS [RANDOM] a=0c b=c2 op=0000 -> result=ce carry=0 ovf=0 zero=0 neg=1
PASS [RANDOM] a=77 b=3d op=0110 -> result=e0 carry=0 ovf=0 zero=0 neg=1
PASS [RANDOM] a=7e b=6d op=0101 -> result=80 carry=0 ovf=0 zero=0 neg=1
PASS [RANDOM] a=1f b=d3 op=0001 -> result=4c carry=0 ovf=0 zero=0 neg=0
PASS [RANDOM] a=78 b=5b op=0101 -> result=84 carry=0 ovf=0 zero=0 neg=1
PASS [RANDOM] a=3f b=2a op=0000 -> result=69 carry=0 ovf=0 zero=0 neg=0
PASS [RANDOM] a=86 b=8e op=0000 -> result=14 carry=1 ovf=1 zero=0 neg=0
PASS [RANDOM] a=fa b=26 op=0011 -> result=fe carry=0 ovf=0 zero=0 neg=1
PASS [RANDOM] a=a3 b=2f op=1011 -> result=5c carry=0 ovf=0 zero=0 neg=0
PASS [RANDOM] a=5f b=44 op=0111 -> result=05 carry=0 ovf=0 zero=0 neg=0
PASS [RANDOM] a=cb b=e6 op=1010 -> result=01 carry=0 ovf=0 zero=0 neg=0
PASS [RANDOM] a=29 b=ed op=1010 -> result=01 carry=0 ovf=0 zero=0 neg=0
PASS [RANDOM] a=65 b=b5 op=1011 -> result=9a carry=0 ovf=0 zero=0 neg=1
PASS [RANDOM] a=79 b=44 op=0100 -> result=3d carry=0 ovf=0 zero=0 neg=0
PASS [RANDOM] a=2a b=ab op=0110 -> result=50 carry=0 ovf=0 zero=0 neg=0
PASS [RANDOM] a=dc b=9a op=0001 -> result=42 carry=1 ovf=0 zero=0 neg=0
PASS [RANDOM] a=c3 b=56 op=0110 -> result=c0 carry=0 ovf=0 zero=0 neg=1
PASS [RANDOM] a=67 b=0a op=0010 -> result=02 carry=0 ovf=0 zero=0 neg=0
PASS [RANDOM] a=38 b=79 op=0100 -> result=41 carry=0 ovf=0 zero=0 neg=0
PASS [RANDOM] a=94 b=93 op=0100 -> result=07 carry=0 ovf=0 zero=0 neg=0
PASS [RANDOM] a=59 b=db op=1001 -> result=00 carry=0 ovf=0 zero=1 neg=0
PASS [RANDOM] a=d9 b=6d op=0110 -> result=20 carry=0 ovf=0 zero=0 neg=0
PASS [RANDOM] a=ca b=b6 op=1001 -> result=00 carry=0 ovf=0 zero=1 neg=0
PASS [RANDOM] a=46 b=04 op=1011 -> result=b9 carry=0 ovf=0 zero=0 neg=1
PASS [RANDOM] a=69 b=b4 op=0100 -> result=dd carry=0 ovf=0 zero=0 neg=1
PASS [RANDOM] a=28 b=2d op=1011 -> result=d7 carry=0 ovf=0 zero=0 neg=1
PASS [RANDOM] a=2e b=08 op=1000 -> result=2e carry=0 ovf=0 zero=0 neg=0
PASS [RANDOM] a=fd b=29 op=0000 -> result=26 carry=1 ovf=0 zero=0 neg=0
PASS [RANDOM] a=86 b=da op=1001 -> result=01 carry=0 ovf=0 zero=0 neg=0
PASS [RANDOM] a=66 b=70 op=0011 -> result=76 carry=0 ovf=0 zero=0 neg=0
PASS [RANDOM] a=ba b=5e op=0110 -> result=80 carry=0 ovf=0 zero=0 neg=1
PASS [RANDOM] a=d5 b=1a op=1001 -> result=01 carry=0 ovf=0 zero=0 neg=0
PASS [RANDOM] a=37 b=96 op=0000 -> result=cd carry=0 ovf=0 zero=0 neg=1
PASS [RANDOM] a=26 b=b6 op=1001 -> result=00 carry=0 ovf=0 zero=1 neg=0
PASS [RANDOM] a=dc b=86 op=0000 -> result=62 carry=1 ovf=1 zero=0 neg=0
PASS [RANDOM] a=7e b=db op=1011 -> result=81 carry=0 ovf=0 zero=0 neg=1
PASS [RANDOM] a=79 b=fa op=1001 -> result=00 carry=0 ovf=0 zero=1 neg=0
PASS [RANDOM] a=17 b=a1 op=0110 -> result=2e carry=0 ovf=0 zero=0 neg=0
PASS [RANDOM] a=50 b=f5 op=0001 -> result=5b carry=0 ovf=0 zero=0 neg=0
PASS [RANDOM] a=29 b=c1 op=1001 -> result=00 carry=0 ovf=0 zero=1 neg=0
PASS [RANDOM] a=98 b=4b op=1011 -> result=67 carry=0 ovf=0 zero=0 neg=0
PASS [RANDOM] a=ec b=8a op=0110 -> result=b0 carry=0 ovf=0 zero=0 neg=1
PASS [RANDOM] a=a8 b=a9 op=1001 -> result=01 carry=0 ovf=0 zero=0 neg=0
PASS [RANDOM] a=0e b=e6 op=0111 -> result=00 carry=0 ovf=0 zero=1 neg=0
PASS [RANDOM] a=2a b=2a op=0101 -> result=d5 carry=0 ovf=0 zero=0 neg=1
PASS [RANDOM] a=9e b=38 op=1001 -> result=01 carry=0 ovf=0 zero=0 neg=0
PASS [RANDOM] a=c8 b=ca op=0011 -> result=ca carry=0 ovf=0 zero=0 neg=1
PASS [RANDOM] a=6b b=c7 op=1010 -> result=01 carry=0 ovf=0 zero=0 neg=0
PASS [RANDOM] a=ba b=c4 op=0001 -> result=f6 carry=0 ovf=0 zero=0 neg=1
PASS [RANDOM] a=92 b=b4 op=0111 -> result=09 carry=0 ovf=0 zero=0 neg=0
PASS [RANDOM] a=86 b=fa op=0110 -> result=18 carry=0 ovf=0 zero=0 neg=0
PASS [RANDOM] a=32 b=bd op=1000 -> result=01 carry=0 ovf=0 zero=0 neg=0
PASS [RANDOM] a=e4 b=ca op=0101 -> result=11 carry=0 ovf=0 zero=0 neg=0
PASS [RANDOM] a=a1 b=8e op=1011 -> result=5e carry=0 ovf=0 zero=0 neg=0
PASS [RANDOM] a=0b b=ef op=0001 -> result=1c carry=0 ovf=0 zero=0 neg=0
PASS [RANDOM] a=36 b=75 op=0011 -> result=77 carry=0 ovf=0 zero=0 neg=0
PASS [RANDOM] a=6b b=88 op=0010 -> result=08 carry=0 ovf=0 zero=0 neg=0
PASS [RANDOM] a=9b b=92 op=0000 -> result=2d carry=1 ovf=1 zero=0 neg=0
PASS [RANDOM] a=2d b=4b op=1010 -> result=01 carry=0 ovf=0 zero=0 neg=0
PASS [RANDOM] a=1e b=0d op=1000 -> result=00 carry=0 ovf=0 zero=1 neg=0
PASS [RANDOM] a=18 b=d1 op=1010 -> result=01 carry=0 ovf=0 zero=0 neg=0
PASS [RANDOM] a=41 b=3b op=1000 -> result=08 carry=0 ovf=0 zero=0 neg=0
PASS [RANDOM] a=53 b=56 op=1011 -> result=ac carry=0 ovf=0 zero=0 neg=1
PASS [RANDOM] a=e2 b=04 op=1011 -> result=1d carry=0 ovf=0 zero=0 neg=0
PASS [RANDOM] a=d8 b=12 op=0100 -> result=ca carry=0 ovf=0 zero=0 neg=1
PASS [RANDOM] a=39 b=e5 op=1001 -> result=00 carry=0 ovf=0 zero=1 neg=0
PASS [RANDOM] a=2b b=81 op=0100 -> result=aa carry=0 ovf=0 zero=0 neg=1
PASS [RANDOM] a=27 b=a1 op=0111 -> result=13 carry=0 ovf=0 zero=0 neg=0
PASS [RANDOM] a=04 b=58 op=0110 -> result=04 carry=0 ovf=0 zero=0 neg=0
PASS [RANDOM] a=14 b=12 op=1010 -> result=00 carry=0 ovf=0 zero=1 neg=0
PASS [RANDOM] a=b1 b=55 op=0001 -> result=5c carry=1 ovf=1 zero=0 neg=0
PASS [RANDOM] a=2b b=f5 op=0001 -> result=36 carry=0 ovf=0 zero=0 neg=0
PASS [RANDOM] a=27 b=84 op=0011 -> result=a7 carry=0 ovf=0 zero=0 neg=1
PASS [RANDOM] a=e7 b=b9 op=0001 -> result=2e carry=1 ovf=0 zero=0 neg=0
PASS [RANDOM] a=db b=c9 op=1001 -> result=00 carry=0 ovf=0 zero=1 neg=0
PASS [RANDOM] a=a1 b=2a op=0110 -> result=84 carry=0 ovf=0 zero=0 neg=1
PASS [RANDOM] a=45 b=83 op=1000 -> result=08 carry=0 ovf=0 zero=0 neg=0
PASS [RANDOM] a=72 b=fe op=1000 -> result=01 carry=0 ovf=0 zero=0 neg=0
PASS [RANDOM] a=6f b=86 op=1000 -> result=01 carry=0 ovf=0 zero=0 neg=0
PASS [RANDOM] a=38 b=40 op=0000 -> result=78 carry=0 ovf=0 zero=0 neg=0
PASS [RANDOM] a=f6 b=c5 op=1000 -> result=ff carry=0 ovf=0 zero=0 neg=1
PASS [RANDOM] a=74 b=39 op=0100 -> result=4d carry=0 ovf=0 zero=0 neg=0
PASS [RANDOM] a=3c b=2a op=1010 -> result=00 carry=0 ovf=0 zero=1 neg=0
PASS [RANDOM] a=15 b=e1 op=0011 -> result=f5 carry=0 ovf=0 zero=0 neg=1
PASS [RANDOM] a=43 b=c9 op=0110 -> result=86 carry=0 ovf=0 zero=0 neg=1
PASS [RANDOM] a=25 b=c1 op=0001 -> result=64 carry=0 ovf=0 zero=0 neg=0
PASS [RANDOM] a=5a b=07 op=0100 -> result=5d carry=0 ovf=0 zero=0 neg=0
PASS [RANDOM] a=0c b=71 op=0111 -> result=06 carry=0 ovf=0 zero=0 neg=0
PASS [RANDOM] a=b6 b=f7 op=0110 -> result=00 carry=0 ovf=0 zero=1 neg=0
PASS [RANDOM] a=5c b=55 op=0000 -> result=b1 carry=0 ovf=1 zero=0 neg=1
PASS [RANDOM] a=a0 b=72 op=1000 -> result=e8 carry=0 ovf=0 zero=0 neg=1
PASS [RANDOM] a=dd b=0d op=0011 -> result=dd carry=0 ovf=0 zero=0 neg=1
PASS [RANDOM] a=79 b=9e op=0001 -> result=db carry=0 ovf=1 zero=0 neg=1
PASS [RANDOM] a=7b b=8f op=0111 -> result=00 carry=0 ovf=0 zero=1 neg=0
PASS [RANDOM] a=e3 b=1d op=0101 -> result=00 carry=0 ovf=0 zero=1 neg=0
PASS [RANDOM] a=44 b=95 op=1000 -> result=02 carry=0 ovf=0 zero=0 neg=0
PASS [RANDOM] a=ed b=52 op=0100 -> result=bf carry=0 ovf=0 zero=0 neg=1
PASS [RANDOM] a=8d b=52 op=0100 -> result=df carry=0 ovf=0 zero=0 neg=1
PASS [RANDOM] a=46 b=8c op=1000 -> result=04 carry=0 ovf=0 zero=0 neg=0
PASS [RANDOM] a=17 b=6a op=0000 -> result=81 carry=0 ovf=1 zero=0 neg=1
PASS [RANDOM] a=aa b=7c op=1000 -> result=fa carry=0 ovf=0 zero=0 neg=1
PASS [RANDOM] a=ba b=8b op=0110 -> result=d0 carry=0 ovf=0 zero=0 neg=1
PASS [RANDOM] a=25 b=32 op=0010 -> result=20 carry=0 ovf=0 zero=0 neg=0
PASS [RANDOM] a=49 b=14 op=1001 -> result=00 carry=0 ovf=0 zero=1 neg=0
PASS [RANDOM] a=4b b=5c op=0111 -> result=04 carry=0 ovf=0 zero=0 neg=0
PASS [RANDOM] a=86 b=39 op=0100 -> result=bf carry=0 ovf=0 zero=0 neg=1
PASS [RANDOM] a=d0 b=2c op=0100 -> result=fc carry=0 ovf=0 zero=0 neg=1
PASS [RANDOM] a=07 b=6a op=1001 -> result=01 carry=0 ovf=0 zero=0 neg=0
PASS [RANDOM] a=e8 b=4b op=0111 -> result=1d carry=0 ovf=0 zero=0 neg=0
PASS [RANDOM] a=ec b=23 op=0100 -> result=cf carry=0 ovf=0 zero=0 neg=1
PASS [RANDOM] a=c9 b=39 op=1011 -> result=36 carry=0 ovf=0 zero=0 neg=0
PASS [RANDOM] a=d4 b=67 op=0001 -> result=6d carry=1 ovf=1 zero=0 neg=0
PASS [RANDOM] a=b0 b=82 op=1001 -> result=00 carry=0 ovf=0 zero=1 neg=0
PASS [RANDOM] a=d9 b=20 op=1000 -> result=d9 carry=0 ovf=0 zero=0 neg=1
PASS [RANDOM] a=93 b=e3 op=0110 -> result=98 carry=0 ovf=0 zero=0 neg=1
PASS [RANDOM] a=c8 b=5d op=1010 -> result=00 carry=0 ovf=0 zero=1 neg=0
PASS [RANDOM] a=84 b=2b op=0101 -> result=50 carry=0 ovf=0 zero=0 neg=0
PASS [RANDOM] a=12 b=52 op=1001 -> result=01 carry=0 ovf=0 zero=0 neg=0
PASS [RANDOM] a=d0 b=6e op=1011 -> result=2f carry=0 ovf=0 zero=0 neg=0
PASS [RANDOM] a=db b=a6 op=0011 -> result=ff carry=0 ovf=0 zero=0 neg=1
PASS [RANDOM] a=00 b=0f op=0101 -> result=f0 carry=0 ovf=0 zero=0 neg=1
PASS [RANDOM] a=0c b=59 op=1001 -> result=01 carry=0 ovf=0 zero=0 neg=0
PASS [RANDOM] a=cf b=90 op=1001 -> result=00 carry=0 ovf=0 zero=1 neg=0
PASS [RANDOM] a=69 b=77 op=1010 -> result=01 carry=0 ovf=0 zero=0 neg=0
PASS [RANDOM] a=d8 b=9b op=1000 -> result=fb carry=0 ovf=0 zero=0 neg=1
PASS [RANDOM] a=b8 b=b7 op=0110 -> result=00 carry=0 ovf=0 zero=1 neg=0
PASS [RANDOM] a=30 b=77 op=1001 -> result=01 carry=0 ovf=0 zero=0 neg=0
PASS [RANDOM] a=d4 b=07 op=0110 -> result=00 carry=0 ovf=0 zero=1 neg=0
PASS [RANDOM] a=e9 b=8b op=0101 -> result=14 carry=0 ovf=0 zero=0 neg=0
PASS [RANDOM] a=db b=80 op=0010 -> result=80 carry=0 ovf=0 zero=0 neg=1
PASS [RANDOM] a=c5 b=30 op=0111 -> result=c5 carry=0 ovf=0 zero=0 neg=1
PASS [RANDOM] a=66 b=af op=0101 -> result=10 carry=0 ovf=0 zero=0 neg=0
PASS [RANDOM] a=f8 b=06 op=1011 -> result=07 carry=0 ovf=0 zero=0 neg=0
PASS [RANDOM] a=e1 b=95 op=1010 -> result=00 carry=0 ovf=0 zero=1 neg=0
PASS [RANDOM] a=60 b=e5 op=0100 -> result=85 carry=0 ovf=0 zero=0 neg=1
PASS [RANDOM] a=64 b=29 op=0001 -> result=3b carry=1 ovf=0 zero=0 neg=0
PASS [RANDOM] a=77 b=6e op=0101 -> result=80 carry=0 ovf=0 zero=0 neg=1
PASS [RANDOM] a=d5 b=68 op=0100 -> result=bd carry=0 ovf=0 zero=0 neg=1
PASS [RANDOM] a=aa b=0f op=0001 -> result=9b carry=1 ovf=0 zero=0 neg=1
PASS [RANDOM] a=7d b=8e op=1010 -> result=01 carry=0 ovf=0 zero=0 neg=0
PASS [RANDOM] a=3c b=a9 op=1011 -> result=c3 carry=0 ovf=0 zero=0 neg=1
PASS [RANDOM] a=5b b=af op=1010 -> result=01 carry=0 ovf=0 zero=0 neg=0
PASS [RANDOM] a=b9 b=13 op=1011 -> result=46 carry=0 ovf=0 zero=0 neg=0
PASS [RANDOM] a=65 b=51 op=0011 -> result=75 carry=0 ovf=0 zero=0 neg=0
PASS [RANDOM] a=99 b=3a op=0001 -> result=5f carry=1 ovf=1 zero=0 neg=0
PASS [RANDOM] a=62 b=e4 op=0110 -> result=20 carry=0 ovf=0 zero=0 neg=0
PASS [RANDOM] a=7d b=59 op=0101 -> result=82 carry=0 ovf=0 zero=0 neg=1
PASS [RANDOM] a=ed b=c9 op=1001 -> result=00 carry=0 ovf=0 zero=1 neg=0
PASS [RANDOM] a=af b=db op=0001 -> result=d4 carry=0 ovf=0 zero=0 neg=1
PASS [RANDOM] a=70 b=06 op=1010 -> result=00 carry=0 ovf=0 zero=1 neg=0
PASS [RANDOM] a=bd b=6a op=0000 -> result=27 carry=1 ovf=0 zero=0 neg=0
PASS [RANDOM] a=50 b=7b op=0101 -> result=84 carry=0 ovf=0 zero=0 neg=1
PASS [RANDOM] a=78 b=f6 op=0000 -> result=6e carry=1 ovf=0 zero=0 neg=0
PASS [RANDOM] a=23 b=79 op=0000 -> result=9c carry=0 ovf=1 zero=0 neg=1
PASS [RANDOM] a=bb b=0e op=0111 -> result=02 carry=0 ovf=0 zero=0 neg=0
PASS [RANDOM] a=0c b=ce op=0000 -> result=da carry=0 ovf=0 zero=0 neg=1
PASS [RANDOM] a=59 b=b9 op=0111 -> result=2c carry=0 ovf=0 zero=0 neg=0
PASS [RANDOM] a=f4 b=75 op=0100 -> result=81 carry=0 ovf=0 zero=0 neg=1
PASS [RANDOM] a=39 b=02 op=1001 -> result=00 carry=0 ovf=0 zero=1 neg=0
PASS [RANDOM] a=05 b=4e op=0010 -> result=04 carry=0 ovf=0 zero=0 neg=0
PASS [RANDOM] a=b8 b=08 op=1001 -> result=01 carry=0 ovf=0 zero=0 neg=0
PASS [RANDOM] a=af b=e8 op=1000 -> result=af carry=0 ovf=0 zero=0 neg=1
PASS [RANDOM] a=f5 b=4c op=1011 -> result=0a carry=0 ovf=0 zero=0 neg=0
PASS [RANDOM] a=40 b=25 op=1001 -> result=00 carry=0 ovf=0 zero=1 neg=0
PASS [RANDOM] a=70 b=2d op=1001 -> result=00 carry=0 ovf=0 zero=1 neg=0
PASS [RANDOM] a=bc b=30 op=0000 -> result=ec carry=0 ovf=0 zero=0 neg=1
PASS [RANDOM] a=50 b=a1 op=1001 -> result=00 carry=0 ovf=0 zero=1 neg=0
PASS [RANDOM] a=f5 b=f5 op=1001 -> result=00 carry=0 ovf=0 zero=1 neg=0
PASS [RANDOM] a=94 b=6a op=1000 -> result=e5 carry=0 ovf=0 zero=0 neg=1
PASS [RANDOM] a=b8 b=9e op=0110 -> result=00 carry=0 ovf=0 zero=1 neg=0
PASS [RANDOM] a=46 b=07 op=0111 -> result=00 carry=0 ovf=0 zero=1 neg=0
===================================================
 SUMMARY
===================================================
Total checks run : 221
Failures         : 0
Opcode coverage  : 12 / 12 opcodes hit (mask=111111111111)
RESULT: ALL TESTS PASSED
tb_alu_8bit.v:166: $finish called at 1326000 (1ps)
